{
  "site" : {
    "name": "Nom du projet",
    "description": "Description du projet"
  },
  "paths": {
    "build": "./public/",
    "assets": "./dev/assets/",
    "templates": "./dev/templates/",
    "pages": "./dev/pages/"
  },
  "baseURL": {
    "dev": "/",
    "prod": "/"
  }
}
